GLM & GAM
…
How much does over-dispersion affect results

Use sample() to randomise the response in sorich to remove the relationship between the preictor and response. Sample reorders the vector. We took the column nsp and randomized. We use the dollar sign to indicate that is a colum inside the sorich. We randomized the nsp so we null the relationship between predictor and response.

random.sorich <- tibble (nsp = sample(sorich$nsp), cover = sorich$cover)
random.sorich

## # A tibble: 692 x 2
##      nsp cover
##    <int> <dbl>
##  1     2   0  
##  2     1   0  
##  3     8   0  
##  4     4   0  
##  5     0   0  
##  6     6   0  
##  7    12   0  
##  8     2   0  
##  9     0   0  
## 10     0   0.2
## # ... with 682 more rows
…
